<svg xmlns="http://www.w3.org/2000/svg" width="912.902" height="7.286" viewBox="0 0 912.902 7.286">
  <g id="centre_line" data-name="centre line" transform="translate(912.902) rotate(90)" opacity="0.696">
    <g id="centre_line-2" data-name="centre line" transform="translate(0 0)">
      <g id="Group_64515" data-name="Group 64515">
        <g id="Group_64514" data-name="Group 64514">
          <g id="Group_64513" data-name="Group 64513">
            <g id="Group_64512" data-name="Group 64512">
              <path id="Path_146104" data-name="Path 146104" d="M.505,5.487,0,4.62.642,0Z" transform="translate(1.438 907.415)" fill="#fff"/>
              <path id="Path_146105" data-name="Path 146105" d="M.1,12.48C.654,8.235,1.007.132,2.064,0L1.12,7.671c.8,1.07.749,6.118.49,10.579l.05-5.06c-.107,1.3-.613.471-.721,1.777.408,7.735-.693,9.716.181,16.868l.084-.4L.686,37.071c.119,1.781.494,1.074.637.5A145.515,145.515,0,0,0,.509,53.237C-.938,47.953,1.636,38.269.187,33.01l-.086.4C.643,26.82-.293,19.165.1,12.48Z" transform="translate(1.298 853.049)" fill="#fff"/>
              <path id="Path_146106" data-name="Path 146106" d="M0,.439C.014.288.026.144.038,0,.08.028.056.22,0,.439Z" transform="translate(2.622 890.184)" fill="#fff"/>
              <path id="Path_146107" data-name="Path 146107" d="M0,.276.231,0C.147.407.064.783,0,.276Z" transform="translate(0.526 617.3)" fill="#fff"/>
              <path id="Path_146108" data-name="Path 146108" d="M.028.686C.018.546.01.418,0,.278.32-.253.241.027.028.686Z" transform="translate(3.412 700.34)" fill="#fff"/>
              <path id="Path_146109" data-name="Path 146109" d="M.334,1.633,0,0A2.413,2.413,0,0,1,.334,1.633Z" transform="translate(0.542 162.505)" fill="#fff"/>
              <path id="Path_146110" data-name="Path 146110" d="M0,0,.295.224C.129.439.044.319,0,0Z" transform="translate(5.106 103.131)" fill="#fff"/>
              <path id="Path_146111" data-name="Path 146111" d="M.139,3.007C.064,2,.008,1.01,0,0A12.279,12.279,0,0,1,.139,3.007Z" transform="translate(5.556 63.955)" fill="#fff"/>
              <path id="Path_146112" data-name="Path 146112" d="M0,1.1C.052.767.09.383.121,0A9.643,9.643,0,0,1,0,1.1Z" transform="translate(0.492 52.114)" fill="#fff"/>
              <path id="Path_146113" data-name="Path 146113" d="M0,0,.768,1.406C.52,1.386.257.667,0,0Z" transform="translate(5.648 157.557)" fill="#fff"/>
              <path id="Path_146114" data-name="Path 146114" d="M.273,1.893A9.445,9.445,0,0,1,0,0,5.29,5.29,0,0,1,.273,1.893Z" transform="translate(6.034 56.14)" fill="#fff"/>
              <path id="Path_146115" data-name="Path 146115" d="M.131,0C.121,1.03.106,2.192.022,3.6A25.058,25.058,0,0,1,.131,0Z" transform="translate(1.318 858.169)" fill="#fff"/>
              <path id="Path_146116" data-name="Path 146116" d="M0,.651A1.993,1.993,0,0,1,.293,0C.225.807.119.847,0,.651Z" transform="translate(6.342 360.892)" fill="#fff"/>
              <path id="Path_146117" data-name="Path 146117" d="M0,.391.026,0C.058.1.1.252.147.5Z" transform="translate(6.221 241.656)" fill="#fff"/>
              <path id="Path_146118" data-name="Path 146118" d="M0,.463A3.907,3.907,0,0,1,.167,0C.1.339.044.427,0,.463Z" transform="translate(6.096 276.466)" fill="#fff"/>
              <path id="Path_146119" data-name="Path 146119" d="M0,1.222A9.084,9.084,0,0,1,.263,0Z" transform="translate(7.023 214.468)" fill="#fff"/>
              <path id="Path_146120" data-name="Path 146120" d="M6.231,190.463c.273,1.13.528-.084.784-1.274.366,6.294-.583,8.382.078,14.928l-.374-3.071c-.557,4.229-.677,12.04.056,15.826l.249-1.182c-.611,4.029.522,10.359,0,12.076-.334-1.653-.526.076-.84-2.492l-.631,10.239,1.033.767-.342,5.375c-.414-1.326.326,7.208-.651,7.348.374,3.067.782-1.266,1.184-2.36-.3,3.031.143,3.355-.452,6.166l.9,3L6.581,263.7c.086-.4.149.092.233-.288-.766,3.606.448,9.161-.868,13.757.048-.24.092-.172.149-.24-.711,2.516-.2,8.73-.044,11-.177,4.069-.868,1.689-1.248,1.857.231,11.8.173,8.035-.9,17.943,1.131,5.926,1.827-7.009,2.618.531-.551,1.01-.985,6.238-1.2,12.14.39,5.4.689,14.44,1.463,19.672l-.741-.539-.412,7.592,1.079-4.313c-.251,1.21-.723,5.024-1.087,7.56-.647,7.883,1.616,4.473.488,10.591a3.807,3.807,0,0,0,.235.579c-.571,1.969-.362,7.144-.575,13.1l.952-2.073-.2-3.866c.924,2.081-.159,6.393-.1,10.151-.324,3.93-1.1,1.977-1.382,4.081a31.482,31.482,0,0,0,.034,4.672c.291,3.458,1.119.367,1.523-.723-.975,2.991-.85,4.021-1.246,10.69.46.351.663-.132.754-1.018a9.057,9.057,0,0,1-.737,3.35l.545,2.264c.788,7.584-1.766,7.516-1.467,16.581.512-2.42-.119,7.811.488,10.591.153-3.139,1.389,1.51,1.965-.4.344,7.244-1.125,2.883-1.348,8.754l1.186-2.368c-.516,5.651-.635,1.374-1.005,7.148.34-1.589.315,2.56.7-.863.115,7.524.012,5.571.149,12.192l-1.141.543a7.346,7.346,0,0,0,.583,3.686c.022-.918-.016-2.348.131-2.22.985,2.588-.557,4.237.346,7.228-.36-.739-.864-1.577-.932,1.166.7-.879.647,4.205.942,4.413-.482-1.741-.223,5.874-.983,6.25.524,3.175.551-1,.932-1.174-.892,2.6-.127,11.082-.637,13.482.07.052.119.188.165.176-.541,3.35-.675,8.913-1.461,15.582l.659-2.288c.283,6.729-1.38,4.085-1.37,9.672.932-1.174-.078,9.237.96,6.749-.534,3.326-.772,6.873-1.581,9.049.524,3.179,1.28-6.026,1.545-1.637l-.494,4.736.5.851c-.378.188-.408,4.345-.7,4.129.605.743,1.029,2.648,1.489,2.44-.183,3,.394,7.216-.137,9.716l.295.224c-1.123,2.883-.227,9.125-1.391,10.575l.629,1.861c-.113,4.569-1.294,3.694-1.573,5.81-.044,1.825-.177,4.061-.074,5.986.75-5.954.9,3,1.322,4.241.018,2.34-.08,9.237-.653,11.13.6-2.819,1.079-1.062,1.129-6.134,1.135,2.72-.267,7.707-.107,13.4l.528-.056c-.352,8.1-1.262,8.35-2.178,11.849.655.958.824.16,1.485-2.145.39,5.4-.05,13.921.026,20.015.464,1.917.735.655.936-1.366-.5,6.286.111,14.061-1.051,18.014.464-1.549.3,2.532.524,4.852-.239,0-.547.447-.514.723a104.694,104.694,0,0,0-.494,16.84l.338-1.621c.191,10.375-1.8,14.94-.954,26.269.247,2.033.954-2.1.924,2.065-.426,2.021-1.314,1.358-1.069,6.641l.76-.355-.766,3.6c-.629-1.853-.408-7.739-1.111-3.618.709,4.728-.7,4.125.129,9.872a18.055,18.055,0,0,1,.965-4.005c.9,12.04-.745,16.852.213,29.048-.6,6.07-.721,13.881-1.28,18.09.76-.347,1.435-.307,2.032-3.115.1,5.183-1.62,7.62-.506,11.242-1.039,2.484-.661,14.392-2.118,15.63.295.212.01,5.583.824.148-.48,7.08,1.268,9.317,1.262,12.559-.044,1.825-.926-2.081-.952,2.073.062.511.209.627.271,1.146l-.34,1.593c.332,1.653.721-1.8,1.1-1.965.307,5.815-.842,9.6-.938,16.481l.255-1.178.052,7,.084-.4-.514,5.651.376-.172a33.538,33.538,0,0,0-.386,3.434l.466-.587c-.723,1.793-1.113,8.462-1.119,11.721l.209.619-.944,7.668c.5,4.085,1.109-5.216.756,2.891l.952-2.081c-.37,5.762.139,6.617-.185,10.555-.484-1.777-.416-4.509-.84-2.484,1.089,4.529-.279,7.228-.723,11.573a15.115,15.115,0,0,1,.563-5.2c-.018-2.332-.506-.839-.547-2.268L2,847.386l-.653-.938.518-5.667c-.762.355-.1-5.2-.9-3,.322-3.954-.223-6.218.545-9.824-.46-2.68-.557,4.233-.635,1.386.619-15.814.5-32.163.237-48.632l-.342,1.6c.342-1.6.621-3.714.878-4.912-.609-2.8-1.391-13.59-.243-17.388-.064-.527-.235.3-.32.7.137-5.487-.667-15.371-.549-23.174,1.212-3.3-.756-11.741.894-14.7l-.338,1.613c.456,2.66,1.145-3.79,1.549-4.88-1.073-2.192-.822-.152-1.811-2.763l.374,3.1-.884-.683c2.277-9.916-1.041-18.458.615-24.632-.088.375-.233.279-.316.687-.5-4.105.623-6.988.926-10-.444-.348-.723,1.8-1.063,3.378-.344-7.216.86-19.336.155-27.291.6-2.807.8,1.058,1.25-1.861-.165-2.456-.647-4.2-.95-1.17-1.1-6.877.721-22.707-.295-33.233.663-5.539.952-2.081,1.391-10.579-.426,1.993-1.453-2.013-1.5,3.055l-.466.595c-.09-8.446-.259-19.716,1.059-24.328-.971-.264-.187-1.533-.711-4.72.11-1.3.147.116.211.639.83-3.1-.034-4.684.1-6.9l-.171.787.6-6.066c-.125-1.01-.313-2.532-.609-2.747l.677.036c.006-3.263-.864-1.577-.687-5.643l.506.859c-.313-2.576.392-6.7-.346-7.236-.145-.112-.084.4-.107,1.31C-.446,560.125.918,553.72.44,548.728L1.537,550c.346-4.856-.227-2.967-.609-2.787.008-3.251-.348-3.969-.47-8.25.279-2.112.4-1.1.721-1.785l-.265-4.373-.6,2.811c1.595-6.725-.179-16.876,1.284-21.361-.311-2.552-.657,2.288-.842.763-.7-7.975,1.045-17.815.233-24.464C.211,479.741.972,467.3.444,455.289l.295.216L.5,446.959c.659-2.3.352-8.111,1.121-11.717-.233.3-.591-.467-.762.351.092-3.638.416-7.584.018-9.736l-.253,1.214c-.179-8.047-.2-19.22.358-23.442.07-2.751-.46-2.684-.818-3.414A80.556,80.556,0,0,1,.9,388.686a27.838,27.838,0,0,0-.52-3.187L1.1,383.73c-.1-1.949-.589-.451-.776-1.989.858-7.256.094-15.722.145-20.814l.356.731c.281-2.113-.221-6.2-.583-3.694-.426-10.075,1.125-14.947.938-28.569-1.3-1.9.382-12.276-1.071-14.285.372-5.751-.213-9.457.639-13.47-.147-.12-.209-.619-.235.3-.541-2.276-.127-9.864.241-15.63l-.442-.323c.954-2.081.677-12.044,1.628-14.125-.209-.635-.4,1.1-.573,1.909-.9-3.015.434-5.263.229-9.141-.233.3-.5-.847-.677-.036-1.029-12.871.715-31.556.008-48.349-.036-4.672,1.007,1.693.936-4.409-.484-1.761-.975,2.987-1.18-.883.6-2.811.472-3.838.416-7.592-.319.683-.53.068-.746,2.7-.4-2.168.756-9.2-.036-13.518.293.216.464-.575.633-1.378C1.788,184.8.116,176.59.579,176c0,0,.131-2.22.233-.291-.018-2.336-.157-5.691-.625-5.108a18.542,18.542,0,0,0,.707-4.133l-.551.994c.117-1.058.466-2.284.534-3.323l.334,1.649c-.458-2.672.647-7.907-.406-7.751l-.024.906-.476-5a25.867,25.867,0,0,0,.707-7.368c-1.093-1.29-.235-8.55-.35-12.819l-.382.192c.532-3.343.295-11.893.484-10.343,0-3.247-.261-7.635-.6-6.022.215-2.64.205-8.223.84-9.608l-.918-5.311c1.356-3.187-.49-10.615.948-10.93C.806,88.778.488,89.465.237,87.412A64.741,64.741,0,0,0,.7,74.757l-.149-.116c-.117-4.277.607-9.3.683-15.3L.143,58.076c.153-3.143,1-3.91.772-6.889-.169-.695-.227-.036-.287.759a53.565,53.565,0,0,0-.33-9.1c.79-4.525.5-8,1.35-11.988-.963-3.518-.43,5.251-1.332,2.232C-.2,26.66.341,20.095.816,13.014c-.207-.607-.378.184-.611.479,0,0,2.634-14.364,3.675-11.685C4.6.032,5.025-1.985,5.624,4.057c-.424,2.009-.942,7.671-.141,8.734l-.758.355c-.354,8.095,1.561.707,1.543,10.451l-.251-2.053c-.046,1.837-.534,3.315-.285,5.375.211.619.317-.7.488-1.5L5.192,33.481c.442.343.675.036,1.015-1.569-.034,7.4-1.389-1.5-1.089,7.552.332,1.641.464-.583.719-1.773.649,4.189.052,7.008-.358,11.333.677.06.6-2.8,1.033.775-.356-.715-.948-1.166-1.015,1.577.685-1.326.364,2.093.537,4.764-.235-.543-.555-.335-.675.715-.108,1.31.163,2.432.119,4.265l-.671-3.283c-.641,4.612.346,7.22.637,10.722a5.709,5.709,0,0,0,.251-1.6c.279,3.694.824,7.5.235,12.16l.086-.4c-.671,8.794-1.135-2.712-1.766,7.52C4.392,89.6,6.468,84.633,5.674,92.4c-.583-3.682-1.4,5.016-1.662,9.448l1.316-4.58c.012,1.785-.352,4.884-.221,5.862l-.295-.224c-1.119-.335.157,5.723-.524,8.937,1.527-3.989,1.232-4.213,2.753-4.944A40.036,40.036,0,0,0,5.6,119.316l1.171-4.692c.259,7.611-1.467,16.561-2.449,22.811.868-1.685,1.177.886,1.923-1.837l-.181,7.308.952-2.065c-.977,2.987-.307,6.27-1.571,5.783a5.061,5.061,0,0,0,.277-2.109c-.382.176-1.165,1.446-1.107,5.223.313,2.544.488-1.5.846-.791-.512,2.428.311,2.576-.054,5.092l-.543-2.252c-.723,1.773-.03,4.177-.392,6.661.313-3,.735-2.013,1.173-.891l-.094-.164c-.046,1.817-.557,4.225-.137,5.483l1.015-1.549-.743,2.692c.125,1.018.484,1.741.675.028.617,8.354-2.174-.236-1.244,10.7.382-.184.637-1.382.41-4.345.613-.479.971.256,1.2,3.215.046.052.076.008.113.016C6.858,179.318,6.91,186.722,6.231,190.463Z" fill="#fff"/>
              <path id="Path_146121" data-name="Path 146121" d="M0,6.793C-.005,3.754,0,1.186.132,0,.329.571.636,6.949,0,6.793Z" transform="translate(6.84 166.838)" fill="#fff"/>
              <path id="Path_146122" data-name="Path 146122" d="M0,1.122C.03.735.064.363.1,0,.07.4.036.763,0,1.122Z" transform="translate(5.757 620.626)" fill="#fff"/>
              <path id="Path_146123" data-name="Path 146123" d="M.225,1.27A5.128,5.128,0,0,1,0,0C.2,0,.35.311.225,1.27Z" transform="translate(5.23 644.615)" fill="#fff"/>
              <path id="Path_146124" data-name="Path 146124" d="M.856,0C.531,2.113.261,2.9,0,3.015A5.053,5.053,0,0,1,.856,0Z" transform="translate(5.522 533.629)" fill="#fff"/>
              <path id="Path_146125" data-name="Path 146125" d="M0,.867C.05.571.1.256.151,0,.1.679.052.863,0,.867Z" transform="translate(5.976 486.494)" fill="#fff"/>
              <path id="Path_146126" data-name="Path 146126" d="M.5,0C.171,2.033.193,4.892,0,7.228.181,5.235-.147,1.394.5,0Z" transform="translate(6.104 389.226)" fill="#fff"/>
              <path id="Path_146127" data-name="Path 146127" d="M0,2.411.51,0,.146,2.53Z" transform="translate(4.345 672.877)" fill="#fff"/>
              <path id="Path_146128" data-name="Path 146128" d="M.028,4.028C-.1,3.018.227-.94.5.206A31.814,31.814,0,0,0,.028,4.028Z" transform="translate(4.654 648.717)" fill="#fff"/>
              <path id="Path_146129" data-name="Path 146129" d="M0,.965.55,0,.126,2Z" transform="translate(4.207 565.43)" fill="#fff"/>
            </g>
          </g>
        </g>
      </g>
    </g>
  </g>
</svg>
