<svg xmlns="http://www.w3.org/2000/svg" width="86.519" height="67.155" viewBox="0 0 86.519 67.155">
  <g id="Group_65485" data-name="Group 65485" transform="translate(-218.77 -68.961)">
    <path id="Path_146628" data-name="Path 146628" d="M409.193,124.936l-.626,3.887h2.966l-.626-3.887Z" transform="translate(-109.251 -32.22)" fill="#de3148"/>
    <rect id="Rectangle_13048" data-name="Rectangle 13048" width="24.181" height="2.303" transform="translate(237.766 133.813)" fill="#de3148"/>
    <path id="Path_146629" data-name="Path 146629" d="M281.1,150.276v-4.952c0-3.344-.111-8.887-.081-12.232a1,1,0,0,0-.733-1.063c-7.23-3.18-12.763-.368-17.2-6.787-1.482-2.145-.412-9.893-1.668-12.178-.273-.5-3.855-.47-4.437-.469q-14.7.031-29.4.026c-1.854,0-2.846.954-2.847,2.711q-.006,17.14,0,34.279c0,.208.022.416.035.665Z" transform="translate(-3.432 -25.117)" fill="#5cb7b0"/>
    <path id="Path_146630" data-name="Path 146630" d="M278.628,151.093v-9.31a1.854,1.854,0,0,1,2.833-1.573l7.478,4.655a1.854,1.854,0,0,1,0,3.147l-7.478,4.654a1.853,1.853,0,0,1-2.833-1.573Z" transform="translate(-34.456 -40.851)" fill="#de3148"/>
    <path id="Path_146631" data-name="Path 146631" d="M277.806,153.559v-9.31a1.854,1.854,0,0,1,2.833-1.573l7.478,4.655a1.855,1.855,0,0,1,0,3.147l-7.478,4.654a1.853,1.853,0,0,1-2.833-1.573Z" transform="translate(-33.982 -42.271)" fill="none" stroke="#252b30" stroke-miterlimit="10" stroke-width="1.644"/>
    <path id="Path_146632" data-name="Path 146632" d="M307.267,84.427l21.342-9.4,22.577,9.4-22.577,9.4Z" transform="translate(-50.941 -3.493)" fill="#f89635"/>
    <path id="Path_146633" data-name="Path 146633" d="M239.022,154.857v-.628h6.74v-5.9H221.546a2.78,2.78,0,0,1-2.776-2.777V105.81a2.78,2.78,0,0,1,2.776-2.776h27.015v.627H221.546a2.152,2.152,0,0,0-2.149,2.149v35.519h51.726v.627H219.4v3.6a2.152,2.152,0,0,0,2.149,2.149h56.436a2.151,2.151,0,0,0,2.149-2.149v-3.6H275.4v-.627h4.735V126.743h.628v18.814a2.78,2.78,0,0,1-2.777,2.777h-23.8v5.9h6.74v.628Zm7.368-.628h7.166v-5.9H246.39Z" transform="translate(0 -19.613)" fill="#252b31"/>
    <rect id="Rectangle_13049" data-name="Rectangle 13049" width="38.35" height="0.627" transform="translate(236.182 117.055)" fill="#252b31"/>
    <rect id="Rectangle_13050" data-name="Rectangle 13050" width="3.375" height="0.627" transform="translate(224.997 117.055)" fill="#252b31"/>
    <path id="Path_146634" data-name="Path 146634" d="M247.913,182.222a.769.769,0,0,1-.768-.768v-2.986a.769.769,0,0,1,.768-.768h1.363a.769.769,0,0,1,.768.768v2.986a.769.769,0,0,1-.768.768Zm-.141-.627h1.644v-3.266h-1.644Z" transform="translate(-16.333 -62.593)" fill="#252b31"/>
    <path id="Path_146635" data-name="Path 146635" d="M340.181,124.116l13.582-6.46v7.632s-4.824,3.028-13.582,3.869a46.3,46.3,0,0,1-13.582-3.869v-7.632l13.582,6.46Z" transform="translate(-62.069 -28.03)" fill="#f89635"/>
    <path id="Path_146636" data-name="Path 146636" d="M321.741,103.046a30.292,30.292,0,0,1-10.933-2.1c-2.867-1.159-4.793-2.628-4.793-3.656V86.919l-10.863-4.714a.977.977,0,0,1,0-1.792l26.2-11.372a.981.981,0,0,1,.778,0l26.2,11.372a.976.976,0,0,1,0,1.791l-1.669.724-.272-.626,2.29-.994L321.741,69.617,294.8,81.309,321.741,93,340.4,84.9l.272.626-3.209,1.393V97.289c0,1.028-1.926,2.5-4.793,3.656A30.292,30.292,0,0,1,321.741,103.046ZM306.7,97.325l.016.06c.208.768,2.068,2,4.523,2.991a28.755,28.755,0,0,0,21.009,0c2.456-.993,4.316-2.223,4.523-2.992l.016-.059V87.216L322.13,93.577a.981.981,0,0,1-.778,0L306.7,87.216Z" transform="translate(-43.629)" fill="#252b30"/>
    <path id="Path_146637" data-name="Path 146637" d="M381.922,107.362a1.753,1.753,0,0,1-.609-3.4l.3-.113v-1.682a1.956,1.956,0,0,0-1.546-1.906l-.022,0-20.439-2.2.073-.679,20.466,2.207.014,0a2.632,2.632,0,0,1,2.138,2.584v1.7l.288.118a1.754,1.754,0,0,1-.664,3.378Zm0-2.827a1.072,1.072,0,1,0,1.072,1.072A1.073,1.073,0,0,0,381.922,104.535Z" transform="translate(-81.069 -16.356)" fill="#252b30"/>
    <path id="Path_146638" data-name="Path 146638" d="M408.12,127.866a.842.842,0,0,1-.832-.974l.448-2.832.623.1-.486,3.078h2.906l-.541-3.082.62-.109.5,2.834a.843.843,0,0,1-.83.988Z" transform="translate(-108.509 -31.707)" fill="#252b30"/>
  </g>
</svg>
