<svg xmlns="http://www.w3.org/2000/svg" xmlns:xlink="http://www.w3.org/1999/xlink" width="98" height="98" viewBox="0 0 98 98">
  <defs>
    <filter id="Ellipse_6164" x="0" y="0" width="98" height="98" filterUnits="userSpaceOnUse">
      <feOffset dy="3" input="SourceAlpha"/>
      <feGaussianBlur stdDeviation="3" result="blur"/>
      <feFlood flood-opacity="0.161"/>
      <feComposite operator="in" in2="blur"/>
      <feComposite in="SourceGraphic"/>
    </filter>
  </defs>
  <g id="Group_64538" data-name="Group 64538" transform="translate(9 6)">
    <g transform="matrix(1, 0, 0, 1, -9, -6)" filter="url(#Ellipse_6164)">
      <circle id="Ellipse_6164-2" data-name="Ellipse 6164" cx="40" cy="40" r="40" transform="translate(9 6)" fill="#fff"/>
    </g>
    <path id="path" d="M27.508,0,15.224,12.357,2.733,0,0,2.344,15.224,17.568,30.448,2.344Z" transform="translate(33.432 55.448) rotate(-90)" fill="#4b4f56" fill-rule="evenodd"/>
  </g>
</svg>
